module gitlab.com/HiSakDev/caddy-collect-website

go 1.20

require (
	github.com/aws/aws-sdk-go-v2 v1.26.1
	github.com/aws/aws-sdk-go-v2/config v1.27.11
	github.com/aws/aws-sdk-go-v2/feature/s3/manager v1.16.15
	github.com/aws/aws-sdk-go-v2/service/s3 v1.53.1
	github.com/caddyserver/caddy/v2 v2.7.6
	github.com/docker/go-units v0.5.0
	github.com/robfig/cron/v3 v3.0.1
	go.uber.org/zap v1.27.0
)

require (
	filippo.io/edwards25519 v1.0.0 // indirect
	github.com/AndreasBriese/bbloom v0.0.0-20190825152654-46b345b51c96 // indirect
	github.com/Masterminds/goutils v1.1.1 // indirect
	github.com/Masterminds/semver/v3 v3.2.0 // indirect
	github.com/Masterminds/sprig/v3 v3.2.3 // indirect
	github.com/Microsoft/go-winio v0.6.0 // indirect
	github.com/antlr/antlr4/runtime/Go/antlr/v4 v4.0.0-20230305170008-8188dc5388df // indirect
	github.com/aryann/difflib v0.0.0-20210328193216-ff5ff6dc229b // indirect
	github.com/aws/aws-sdk-go-v2/aws/protocol/eventstream v1.6.2 // indirect
	github.com/aws/aws-sdk-go-v2/credentials v1.17.11 // indirect
	github.com/aws/aws-sdk-go-v2/feature/ec2/imds v1.16.1 // indirect
	github.com/aws/aws-sdk-go-v2/internal/configsources v1.3.5 // indirect
	github.com/aws/aws-sdk-go-v2/internal/endpoints/v2 v2.6.5 // indirect
	github.com/aws/aws-sdk-go-v2/internal/ini v1.8.0 // indirect
	github.com/aws/aws-sdk-go-v2/internal/v4a v1.3.5 // indirect
	github.com/aws/aws-sdk-go-v2/service/internal/accept-encoding v1.11.2 // indirect
	github.com/aws/aws-sdk-go-v2/service/internal/checksum v1.3.7 // indirect
	github.com/aws/aws-sdk-go-v2/service/internal/presigned-url v1.11.7 // indirect
	github.com/aws/aws-sdk-go-v2/service/internal/s3shared v1.17.5 // indirect
	github.com/aws/aws-sdk-go-v2/service/sso v1.20.5 // indirect
	github.com/aws/aws-sdk-go-v2/service/ssooidc v1.23.4 // indirect
	github.com/aws/aws-sdk-go-v2/service/sts v1.28.6 // indirect
	github.com/aws/smithy-go v1.20.2 // indirect
	github.com/beorn7/perks v1.0.1 // indirect
	github.com/caddyserver/certmagic v0.20.0 // indirect
	github.com/cespare/xxhash v1.1.0 // indirect
	github.com/cespare/xxhash/v2 v2.2.0 // indirect
	github.com/chzyer/readline v1.5.1 // indirect
	github.com/cpuguy83/go-md2man/v2 v2.0.2 // indirect
	github.com/dgraph-io/badger v1.6.2 // indirect
	github.com/dgraph-io/badger/v2 v2.2007.4 // indirect
	github.com/dgraph-io/ristretto v0.1.0 // indirect
	github.com/dgryski/go-farm v0.0.0-20200201041132-a6ae2369ad13 // indirect
	github.com/dustin/go-humanize v1.0.1 // indirect
	github.com/go-kit/kit v0.10.0 // indirect
	github.com/go-logfmt/logfmt v0.5.1 // indirect
	github.com/go-sql-driver/mysql v1.7.1 // indirect
	github.com/go-task/slim-sprig v0.0.0-20230315185526-52ccab3ef572 // indirect
	github.com/golang/glog v1.1.2 // indirect
	github.com/golang/protobuf v1.5.3 // indirect
	github.com/golang/snappy v0.0.4 // indirect
	github.com/google/cel-go v0.15.1 // indirect
	github.com/google/pprof v0.0.0-20210720184732-4bb14d4b1be1 // indirect
	github.com/google/uuid v1.3.1 // indirect
	github.com/huandu/xstrings v1.3.3 // indirect
	github.com/imdario/mergo v0.3.12 // indirect
	github.com/inconshreveable/mousetrap v1.1.0 // indirect
	github.com/jackc/chunkreader/v2 v2.0.1 // indirect
	github.com/jackc/pgconn v1.14.0 // indirect
	github.com/jackc/pgio v1.0.0 // indirect
	github.com/jackc/pgpassfile v1.0.0 // indirect
	github.com/jackc/pgproto3/v2 v2.3.2 // indirect
	github.com/jackc/pgservicefile v0.0.0-20221227161230-091c0ba34f0a // indirect
	github.com/jackc/pgtype v1.14.0 // indirect
	github.com/jackc/pgx/v4 v4.18.0 // indirect
	github.com/jmespath/go-jmespath v0.4.0 // indirect
	github.com/klauspost/compress v1.17.0 // indirect
	github.com/klauspost/cpuid/v2 v2.2.5 // indirect
	github.com/libdns/libdns v0.2.1 // indirect
	github.com/manifoldco/promptui v0.9.0 // indirect
	github.com/mattn/go-colorable v0.1.8 // indirect
	github.com/mattn/go-isatty v0.0.16 // indirect
	github.com/matttproud/golang_protobuf_extensions v1.0.4 // indirect
	github.com/mgutz/ansi v0.0.0-20200706080929-d51e80ef957d // indirect
	github.com/mholt/acmez v1.2.0 // indirect
	github.com/micromdm/scep/v2 v2.1.0 // indirect
	github.com/miekg/dns v1.1.55 // indirect
	github.com/mitchellh/copystructure v1.2.0 // indirect
	github.com/mitchellh/go-ps v1.0.0 // indirect
	github.com/mitchellh/reflectwalk v1.0.2 // indirect
	github.com/onsi/ginkgo/v2 v2.9.5 // indirect
	github.com/pkg/errors v0.9.1 // indirect
	github.com/prometheus/client_golang v1.15.1 // indirect
	github.com/prometheus/client_model v0.4.0 // indirect
	github.com/prometheus/common v0.42.0 // indirect
	github.com/prometheus/procfs v0.9.0 // indirect
	github.com/quic-go/qpack v0.4.0 // indirect
	github.com/quic-go/qtls-go1-20 v0.4.1 // indirect
	github.com/quic-go/quic-go v0.40.0 // indirect
	github.com/russross/blackfriday/v2 v2.1.0 // indirect
	github.com/shopspring/decimal v1.2.0 // indirect
	github.com/shurcooL/sanitized_anchor_name v1.0.0 // indirect
	github.com/slackhq/nebula v1.6.1 // indirect
	github.com/smallstep/certificates v0.25.0 // indirect
	github.com/smallstep/nosql v0.6.0 // indirect
	github.com/smallstep/truststore v0.12.1 // indirect
	github.com/spf13/cast v1.4.1 // indirect
	github.com/spf13/cobra v1.7.0 // indirect
	github.com/spf13/pflag v1.0.5 // indirect
	github.com/stoewer/go-strcase v1.2.0 // indirect
	github.com/tailscale/tscert v0.0.0-20230806124524-28a91b69a046 // indirect
	github.com/urfave/cli v1.22.14 // indirect
	github.com/zeebo/blake3 v0.2.3 // indirect
	go.etcd.io/bbolt v1.3.7 // indirect
	go.mozilla.org/pkcs7 v0.0.0-20210826202110-33d05740a352 // indirect
	go.step.sm/cli-utils v0.8.0 // indirect
	go.step.sm/crypto v0.35.1 // indirect
	go.step.sm/linkedca v0.20.1 // indirect
	go.uber.org/mock v0.3.0 // indirect
	go.uber.org/multierr v1.11.0 // indirect
	golang.org/x/crypto v0.14.0 // indirect
	golang.org/x/exp v0.0.0-20230310171629-522b1b587ee0 // indirect
	golang.org/x/mod v0.11.0 // indirect
	golang.org/x/net v0.17.0 // indirect
	golang.org/x/sys v0.14.0 // indirect
	golang.org/x/term v0.13.0 // indirect
	golang.org/x/text v0.13.0 // indirect
	golang.org/x/tools v0.10.0 // indirect
	google.golang.org/genproto/googleapis/api v0.0.0-20231016165738-49dd2c1f3d0b // indirect
	google.golang.org/genproto/googleapis/rpc v0.0.0-20231016165738-49dd2c1f3d0b // indirect
	google.golang.org/grpc v1.59.0 // indirect
	google.golang.org/protobuf v1.31.0 // indirect
	gopkg.in/square/go-jose.v2 v2.6.0 // indirect
	gopkg.in/yaml.v3 v3.0.1 // indirect
	howett.net/plist v1.0.0 // indirect
)
